{
  "type": "service_account",
  "project_id": "bici-cosmetics-7a296",
  "private_key_id": "1400d908f8448515d28cf2ac12a34c097046e3a3",
  "private_key": "-----BEGIN PRIVATE KEY-----\nMIIEvAIBADANBgkqhkiG9w0BAQEFAASCBKYwggSiAgEAAoIBAQC792+VKTN4owqs\nVicb5POOLU6faLONluhjX11HrbFwozFZO405fYfoK9PtEl+cjAGeB1JrCMnNs4M1\nyD+yR+RuF0FEH+5OTUlInCczU6D3zNgv+QnY7Oh71vd21hC+4xZTznjMCgP3vK+/\nAvmdlOzNnbzmHS5acynY/XaI6FUKD6cz5apkiRd/HO3JKh6d3bX1y+ZVZk9rzTrX\nZ88RIOrpg59/1EkfMZT5bDLSj+HQMj0lJ0rOH5cEyNxN5WgGwCMbd3LdQ/KzebP5\neBDbJLv4cfXH36xwrtbMKNtTKsUonb/VcGFVkn1mXSseXQFe7Wm/hZ8xAZtaVi3b\nyjI3O+V/AgMBAAECggEABoJXkV1HZIaU4IntOciQbJyCDAAms6EFtCdBxjEsI1/r\nXhEzX0nLEo2t/Zg0ymmIxs2vG3jG8EImqY6hMg3OScexYWgPqxN/Fa4ep2befKZR\n2DtyDVqK5Hr5v9pC4zFe/RD52ur/3yzgEyfJuBzHpIkxWPCqwcQaL2L7n1sYUsxP\nvwtk4PTRxuT5GC8a3YqqqdJoeQsyoNWeuvxDnxjAiKAC0Y7c1DkSKlkUfJ3uYcVQ\nLX+h6jvcE8/PqPLmAkvwiaOEADo0/AKbZuQ1jP/X6Hjt3BtaNSIl0WJuRnU9UdyV\n4SdbbYpFgBQe2zG4a78CEHW6vP9yC9D3ZdUGTuxizQKBgQDp8LZBbkvkrSHSdHqh\npaYLiYxAPFKIsPmXZ4HxYLQUxUncbA1WwG23wAx2CQUss6GIOGk2V23BX224foRq\n4nsbNlc5DfOgqEOgi+H7YdvN13qhU5Enzt8CBlDd9jZ/JExqLlRu3fWX4DeooyTQ\nMBCYB6VuHQ3F8C0Wn5dFXXjYxQKBgQDNsOyHNY3TB10TMQSlj6XnnkR3SpPI+27m\nipNloQrMZe07xAHI6A3fqJE4Dj8TOHYXeho/V8Gl2w+8dK5RcBPBf7ZnTBqMHIQH\n3cDl56v6q52sNXP9GrGMvwwyuupCZVYoZJY2nDGs6kyooPFIwxcLpQ+28jRZsyQM\nCMVS8M7BcwKBgC0AeB7oF8Naprn0XC7CTcnEYO1ubTYMTUcZyz5iquGf/hBf3MUG\naVTCpeMC4zLxLy6kI2Enul5LfDDUbaaeAK6AapD4JRiPpcq5ffQ8o+rZ+6YTDEZL\nHk0mZ+H63grhMa3vUaCuI/NeV3aiQ4+k31xPhDxFbIPaKuJCOvhF/dw9AoGAZf8f\nqwSBaW2zV7rs5PRQfoRayxSuJ/GWUrfQ04qCAk1g0Ewn3mpDxu6d5EAcQvmyhX3E\n2jg4DHiOWxM5BaUgBsm/t4VjfKr/Ra9O4jJ5c3n6W9S9yXqdJH/wGo/Zbkc17B3E\n5xuY/nfIv63fOAeVu+6D1mJQV1Kfw1/uCWzj+cUCgYA8wVmItRtZHOdCKBsPr8Ak\nVioJefJ2ReIF1/prioM1oJ8c3v65F6dZjh63LiWDJvF7KBDomQ7q/vSnYxmS6rzz\n076En/MNx3yWYW0WOWflE97uyF+445h/zTLWRn/n9Dj6UOQQWPVpO2tTrV/MTSKv\ngQNbo1XuuQJYf5/LPr+PrQ==\n-----END PRIVATE KEY-----\n",
  "client_email": "firebase-adminsdk-xmpwe@bici-cosmetics-7a296.iam.gserviceaccount.com",
  "client_id": "111081587718569288389",
  "auth_uri": "https://accounts.google.com/o/oauth2/auth",
  "token_uri": "https://oauth2.googleapis.com/token",
  "auth_provider_x509_cert_url": "https://www.googleapis.com/oauth2/v1/certs",
  "client_x509_cert_url": "https://www.googleapis.com/robot/v1/metadata/x509/firebase-adminsdk-xmpwe%40bici-cosmetics-7a296.iam.gserviceaccount.com"
}
